{
  "data" : [ {
    "id" : "DHS-2021-0015-0213",
    "type" : "comments",
    "attributes" : {
      "documentType" : "Public Submission",
      "lastModifiedDate" : "2021-12-06T17:15:26Z",
      "highlightedContent" : "",
      "withdrawn" : false,
      "agencyId" : "DHS",
      "title" : "Comment Submitted by Yahaya Tabsum",
      "objectId" : "0900006484ea2b6a",
      "postedDate" : "2021-12-06T05:00:00Z"
    },
    "links" : {
      "self" : "https://api.regulations.gov/v4/comments/DHS-2021-0015-0213"
    }
  }, {
    "id" : "DHS-2021-0015-0215",
    "type" : "comments",
    "attributes" : {
      "documentType" : "Public Submission",
      "lastModifiedDate" : "2021-12-06T17:16:08Z",
      "highlightedContent" : "",
      "withdrawn" : false,
      "agencyId" : "DHS",
      "title" : "Comment Submitted by Anonymous",
      "objectId" : "0900006484ea3677",
      "postedDate" : "2021-12-06T05:00:00Z"
    },
    "links" : {
      "self" : "https://api.regulations.gov/v4/comments/DHS-2021-0015-0215"
    }
  }, {
    "id" : "DHS-2021-0015-0224",
    "type" : "comments",
    "attributes" : {
      "documentType" : "Public Submission",
      "lastModifiedDate" : "2021-12-07T14:22:09Z",
      "highlightedContent" : "",
      "withdrawn" : false,
      "agencyId" : "DHS",
      "title" : "Comment Submitted by Anonymous",
      "objectId" : "0900006484ea2ab1",
      "postedDate" : "2021-12-07T05:00:00Z"
    },
    "links" : {
      "self" : "https://api.regulations.gov/v4/comments/DHS-2021-0015-0224"
    }
  }, {
    "id" : "DHS-2021-0015-0217",
    "type" : "comments",
    "attributes" : {
      "documentType" : "Public Submission",
      "lastModifiedDate" : "2021-12-07T14:18:57Z",
      "highlightedContent" : "",
      "withdrawn" : false,
      "agencyId" : "DHS",
      "title" : "Comment Submitted by Anonymous",
      "objectId" : "0900006484ea5143",
      "postedDate" : "2021-12-07T05:00:00Z"
    },
    "links" : {
      "self" : "https://api.regulations.gov/v4/comments/DHS-2021-0015-0217"
    }
  }, {
    "id" : "DHS-2021-0015-0220",
    "type" : "comments",
    "attributes" : {
      "documentType" : "Public Submission",
      "lastModifiedDate" : "2021-12-07T14:20:21Z",
      "highlightedContent" : "",
      "withdrawn" : false,
      "agencyId" : "DHS",
      "title" : "Comment Submitted by Anonymous",
      "objectId" : "0900006484ea61f6",
      "postedDate" : "2021-12-07T05:00:00Z"
    },
    "links" : {
      "self" : "https://api.regulations.gov/v4/comments/DHS-2021-0015-0220"
    }
  }, {
    "id" : "DHS-2021-0015-0222",
    "type" : "comments",
    "attributes" : {
      "documentType" : "Public Submission",
      "lastModifiedDate" : "2021-12-07T14:20:30Z",
      "highlightedContent" : "",
      "withdrawn" : false,
      "agencyId" : "DHS",
      "title" : "Comment Submitted by WOPLLI Technologies",
      "objectId" : "0900006484ea6776",
      "postedDate" : "2021-12-07T05:00:00Z"
    },
    "links" : {
      "self" : "https://api.regulations.gov/v4/comments/DHS-2021-0015-0222"
    }
  }, {
    "id" : "DHS-2021-0015-0188",
    "type" : "comments",
    "attributes" : {
      "documentType" : "Public Submission",
      "lastModifiedDate" : "2021-12-06T16:27:06Z",
      "highlightedContent" : "",
      "withdrawn" : false,
      "agencyId" : "DHS",
      "title" : "Comment Submitted by Anonymous",
      "objectId" : "0900006484e9a693",
      "postedDate" : "2021-12-06T05:00:00Z"
    },
    "links" : {
      "self" : "https://api.regulations.gov/v4/comments/DHS-2021-0015-0188"
    }
  }, {
    "id" : "DHS-2021-0015-0185",
    "type" : "comments",
    "attributes" : {
      "documentType" : "Public Submission",
      "lastModifiedDate" : "2021-12-06T16:17:27Z",
      "highlightedContent" : "",
      "withdrawn" : false,
      "agencyId" : "DHS",
      "title" : "Comment Submitted by Killian Holt",
      "objectId" : "0900006484e96342",
      "postedDate" : "2021-12-06T05:00:00Z"
    },
    "links" : {
      "self" : "https://api.regulations.gov/v4/comments/DHS-2021-0015-0185"
    }
  }, {
    "id" : "DHS-2021-0015-0187",
    "type" : "comments",
    "attributes" : {
      "documentType" : "Public Submission",
      "lastModifiedDate" : "2021-12-06T16:24:41Z",
      "highlightedContent" : "",
      "withdrawn" : false,
      "agencyId" : "DHS",
      "title" : "Comment Submitted by Rebecca Taylor",
      "objectId" : "0900006484e96cc1",
      "postedDate" : "2021-12-06T05:00:00Z"
    },
    "links" : {
      "self" : "https://api.regulations.gov/v4/comments/DHS-2021-0015-0187"
    }
  }, {
    "id" : "DHS-2021-0015-0197",
    "type" : "comments",
    "attributes" : {
      "documentType" : "Public Submission",
      "lastModifiedDate" : "2021-12-06T16:54:08Z",
      "highlightedContent" : "",
      "withdrawn" : false,
      "agencyId" : "DHS",
      "title" : "Comment Submitted by Anonymous",
      "objectId" : "0900006484e9f5dc",
      "postedDate" : "2021-12-06T05:00:00Z"
    },
    "links" : {
      "self" : "https://api.regulations.gov/v4/comments/DHS-2021-0015-0197"
    }
  }, {
    "id" : "DHS-2021-0015-0199",
    "type" : "comments",
    "attributes" : {
      "documentType" : "Public Submission",
      "lastModifiedDate" : "2021-12-06T16:56:16Z",
      "highlightedContent" : "",
      "withdrawn" : false,
      "agencyId" : "DHS",
      "title" : "Comment Submitted by Anonymous",
      "objectId" : "0900006484e9f76d",
      "postedDate" : "2021-12-06T05:00:00Z"
    },
    "links" : {
      "self" : "https://api.regulations.gov/v4/comments/DHS-2021-0015-0199"
    }
  }, {
    "id" : "DHS-2021-0015-0202",
    "type" : "comments",
    "attributes" : {
      "documentType" : "Public Submission",
      "lastModifiedDate" : "2021-12-06T17:01:51Z",
      "highlightedContent" : "",
      "withdrawn" : false,
      "agencyId" : "DHS",
      "title" : "Comment Submitted by Joel De la Rosa",
      "objectId" : "0900006484ea0867",
      "postedDate" : "2021-12-06T05:00:00Z"
    },
    "links" : {
      "self" : "https://api.regulations.gov/v4/comments/DHS-2021-0015-0202"
    }
  }, {
    "id" : "DHS-2021-0015-0206",
    "type" : "comments",
    "attributes" : {
      "documentType" : "Public Submission",
      "lastModifiedDate" : "2021-12-06T17:04:58Z",
      "highlightedContent" : "",
      "withdrawn" : false,
      "agencyId" : "DHS",
      "title" : "Comment Submitted by Anonymous",
      "objectId" : "0900006484ea11d7",
      "postedDate" : "2021-12-06T05:00:00Z"
    },
    "links" : {
      "self" : "https://api.regulations.gov/v4/comments/DHS-2021-0015-0206"
    }
  }, {
    "id" : "DHS-2021-0015-0203",
    "type" : "comments",
    "attributes" : {
      "documentType" : "Public Submission",
      "lastModifiedDate" : "2021-12-06T17:03:14Z",
      "highlightedContent" : "",
      "withdrawn" : false,
      "agencyId" : "DHS",
      "title" : "Comment Submitted by Matt Pike",
      "objectId" : "0900006484ea095f",
      "postedDate" : "2021-12-06T05:00:00Z"
    },
    "links" : {
      "self" : "https://api.regulations.gov/v4/comments/DHS-2021-0015-0203"
    }
  }, {
    "id" : "DHS-2021-0015-0028",
    "type" : "comments",
    "attributes" : {
      "documentType" : "Public Submission",
      "lastModifiedDate" : "2021-12-01T14:42:24Z",
      "highlightedContent" : "",
      "withdrawn" : false,
      "agencyId" : "DHS",
      "title" : "Comment Submitted by Anonymous",
      "objectId" : "0900006484e89619",
      "postedDate" : "2021-12-01T05:00:00Z"
    },
    "links" : {
      "self" : "https://api.regulations.gov/v4/comments/DHS-2021-0015-0028"
    }
  }, {
    "id" : "DHS-2021-0015-0030",
    "type" : "comments",
    "attributes" : {
      "documentType" : "Public Submission",
      "lastModifiedDate" : "2021-12-01T14:43:35Z",
      "highlightedContent" : "",
      "withdrawn" : false,
      "agencyId" : "DHS",
      "title" : "Comment Submitted by Anonymous",
      "objectId" : "0900006484e896d8",
      "postedDate" : "2021-12-01T05:00:00Z"
    },
    "links" : {
      "self" : "https://api.regulations.gov/v4/comments/DHS-2021-0015-0030"
    }
  }, {
    "id" : "DHS-2021-0015-0038",
    "type" : "comments",
    "attributes" : {
      "documentType" : "Public Submission",
      "lastModifiedDate" : "2021-12-01T15:18:16Z",
      "highlightedContent" : "",
      "withdrawn" : false,
      "agencyId" : "DHS",
      "title" : "Comment Submitted by Corey Nelson",
      "objectId" : "0900006484e88396",
      "postedDate" : "2021-12-01T05:00:00Z"
    },
    "links" : {
      "self" : "https://api.regulations.gov/v4/comments/DHS-2021-0015-0038"
    }
  }, {
    "id" : "DHS-2021-0015-0031",
    "type" : "comments",
    "attributes" : {
      "documentType" : "Public Submission",
      "lastModifiedDate" : "2021-12-01T15:15:59Z",
      "highlightedContent" : "",
      "withdrawn" : false,
      "agencyId" : "DHS",
      "title" : "Comment Submitted by Sean Argyle",
      "objectId" : "0900006484e88722",
      "postedDate" : "2021-12-01T05:00:00Z"
    },
    "links" : {
      "self" : "https://api.regulations.gov/v4/comments/DHS-2021-0015-0031"
    }
  }, {
    "id" : "DHS-2021-0015-0051",
    "type" : "comments",
    "attributes" : {
      "documentType" : "Public Submission",
      "lastModifiedDate" : "2021-12-01T15:21:52Z",
      "highlightedContent" : "",
      "withdrawn" : false,
      "agencyId" : "DHS",
      "title" : "Comment Submitted by Anonymous",
      "objectId" : "0900006484e8943a",
      "postedDate" : "2021-12-01T05:00:00Z"
    },
    "links" : {
      "self" : "https://api.regulations.gov/v4/comments/DHS-2021-0015-0051"
    }
  }, {
    "id" : "DHS-2021-0015-0053",
    "type" : "comments",
    "attributes" : {
      "documentType" : "Public Submission",
      "lastModifiedDate" : "2021-12-01T15:22:12Z",
      "highlightedContent" : "",
      "withdrawn" : false,
      "agencyId" : "DHS",
      "title" : "Comment Submitted by Alan Trevino",
      "objectId" : "0900006484e89a06",
      "postedDate" : "2021-12-01T05:00:00Z"
    },
    "links" : {
      "self" : "https://api.regulations.gov/v4/comments/DHS-2021-0015-0053"
    }
  }, {
    "id" : "DHS-2021-0015-0058",
    "type" : "comments",
    "attributes" : {
      "documentType" : "Public Submission",
      "lastModifiedDate" : "2021-12-01T15:22:54Z",
      "highlightedContent" : "",
      "withdrawn" : false,
      "agencyId" : "DHS",
      "title" : "Comment Submitted by Anonymous",
      "objectId" : "0900006484e89ac2",
      "postedDate" : "2021-12-01T05:00:00Z"
    },
    "links" : {
      "self" : "https://api.regulations.gov/v4/comments/DHS-2021-0015-0058"
    }
  }, {
    "id" : "DHS-2021-0015-0071",
    "type" : "comments",
    "attributes" : {
      "documentType" : "Public Submission",
      "lastModifiedDate" : "2021-12-01T15:24:35Z",
      "highlightedContent" : "",
      "withdrawn" : false,
      "agencyId" : "DHS",
      "title" : "Comment Submitted by Devin Prince",
      "objectId" : "0900006484e8a14d",
      "postedDate" : "2021-12-01T05:00:00Z"
    },
    "links" : {
      "self" : "https://api.regulations.gov/v4/comments/DHS-2021-0015-0071"
    }
  }, {
    "id" : "DHS-2021-0015-0088",
    "type" : "comments",
    "attributes" : {
      "documentType" : "Public Submission",
      "lastModifiedDate" : "2021-12-01T15:26:38Z",
      "highlightedContent" : "",
      "withdrawn" : false,
      "agencyId" : "DHS",
      "title" : "Comment Submitted by Joseph Reichert",
      "objectId" : "0900006484e8a6e0",
      "postedDate" : "2021-12-01T05:00:00Z"
    },
    "links" : {
      "self" : "https://api.regulations.gov/v4/comments/DHS-2021-0015-0088"
    }
  }, {
    "id" : "DHS-2021-0015-0034",
    "type" : "comments",
    "attributes" : {
      "documentType" : "Public Submission",
      "lastModifiedDate" : "2021-12-01T15:16:56Z",
      "highlightedContent" : "",
      "withdrawn" : false,
      "agencyId" : "DHS",
      "title" : "Comment Submitted by Keith Novak",
      "objectId" : "0900006484e8893c",
      "postedDate" : "2021-12-01T05:00:00Z"
    },
    "links" : {
      "self" : "https://api.regulations.gov/v4/comments/DHS-2021-0015-0034"
    }
  }, {
    "id" : "DHS-2021-0015-0046",
    "type" : "comments",
    "attributes" : {
      "documentType" : "Public Submission",
      "lastModifiedDate" : "2021-12-01T15:20:33Z",
      "highlightedContent" : "",
      "withdrawn" : false,
      "agencyId" : "DHS",
      "title" : "Comment Submitted by Jake Imholte",
      "objectId" : "0900006484e88fe0",
      "postedDate" : "2021-12-01T05:00:00Z"
    },
    "links" : {
      "self" : "https://api.regulations.gov/v4/comments/DHS-2021-0015-0046"
    }
  } ],
  "meta" : {
    "aggregations" : {
      "agencyId" : [ {
        "docCount" : 220,
        "value" : "DHS"
      } ],
      "postedDate" : [ ]
    },
    "filters" : { },
    "hasNextPage" : true,
    "hasPreviousPage" : false,
    "numberOfElements" : 25,
    "pageNumber" : 1,
    "pageSize" : 25,
    "totalElements" : 220,
    "totalPages" : 9,
    "firstPage" : true,
    "lastPage" : false
  }
}